{
	"statusCode": 200,
	"response": {
		"current_page": 1,
		"from": 1,
		"last_page": 70,
		"next_page_url": "?page\u003d2", 
		"path": "",
		"per_page": 10,
		"to": 10,
		"total": 699,
		"data": [
			{
				"accountId": 2,
				"siteId": 1,
				"email": "emir@truelogic.com.ph",
				"accountManagerId": 510,
				"firstname": "",
				"lastname": "",
				"amName": "Contributor02 Contributor02",
				"dateAdded": "2017-12-05 12:12:05",
				"lastLogin": "2020-10-19 00:52:10"
			},
			{
				"accountId": 7140,
				"siteId": 1,
				"email": "chew@truelogic.com.ph",
				"accountManagerId": 1,
				"phone": "020 1555 4444",
				"firstname": "Rickson",
				"lastname": "Chew",
				"amName": "Super Super",
				"dateAdded": "2017-12-05 10:21:43",
				"lastLogin": "2024-04-25 23:30:49"
			},
			{
				"accountId": 7141,
				"siteId": 1,
				"email": "jonathan+02@truelogic.com.ph",
				"accountManagerId": 390,
				"phone": "639174186838",
				"firstname": "Jon",
				"lastname": "Jones",
				"amName": "Ryan Ryan",
				"dateAdded": "2017-12-19 09:10:46",
				"lastLogin": "2020-07-23 00:14:42"
			},
			{
				"accountId": 7142,
				"siteId": 1,
				"email": "ryan+14011221@truelogic.com.ph",
				"activationToken": "l-pVdPt7kvI3Kcu",
				"accountManagerId": 390,
				"firstname": "",
				"lastname": "",
				"amName": "Ryan Ryan",
				"dateAdded": "2017-12-21 06:02:08",
				"lastLogin": "2020-05-10 16:33:54"
			},
			{
				"accountId": 7143,
				"siteId": 8,
				"email": "mark.o@truelogic.com.ph",
				"activationToken": "",
				"firstname": "",
				"lastname": "",
				"dateAdded": "2017-12-26 01:39:58"
			},
			{
				"accountId": 7144,
				"siteId": 1,
				"email": "sam+189@truelogic.com.ph",
				"accountManagerId": 390,
				"phone": "(093) 976-1121",
				"firstname": "Sam",
				"lastname": "Pingol",
				"amName": "Ryan Ryan",
				"dateAdded": "2018-01-25 05:39:11",
				"lastLogin": "2022-04-01 02:49:11"
			},
			{
				"accountId": 7145,
				"siteId": 1,
				"email": "REUEL+2311291039@axadra.com",
				"activationToken": "ITIOzV1dpRQz7TG",
				"accountManagerId": 390,
				"phone": "",
				"firstname": "RK",
				"lastname": "Rectra",
				"amName": "Ryan Ryan",
				"dateAdded": "2018-01-25 07:26:58",
				"lastLogin": "2023-11-29 02:37:26"
			},
			{
				"accountId": 7146,
				"siteId": 8,
				"email": "rk@truelogic.com.ph",
				"activationToken": "SjaSk4zxfyhN5h1",
				"firstname": "",
				"lastname": "",
				"dateAdded": "2018-01-31 03:13:51",
				"lastLogin": "2018-02-28 04:13:05"
			},
			{
				"accountId": 7147,
				"siteId": 1,
				"email": "srs1961a@mailinator.com",
				"accountManagerId": 390,
				"firstname": "",
				"lastname": "",
				"amName": "Ryan Ryan",
				"dateAdded": "2018-02-07 07:31:38",
				"lastLogin": "2018-02-07 07:31:38"
			},
			{
				"accountId": 7148,
				"siteId": 1,
				"email": "srs1961b@mailinator.com",
				"accountManagerId": 390,
				"phone": "",
				"firstname": "test",
				"lastname": "test",
				"amName": "Ryan Ryan",
				"dateAdded": "2018-02-07 07:34:18",
				"lastLogin": "2018-04-06 07:31:13"
			}
		]
	}
}