{
	"statusCode": 200,
	"response": {
		"current_page": 1,
		"from": 1,
		"last_page": 4,
		"next_page_url": "?page=2",
		"path": "",
		"per_page": 10,
		"prev_page_url": null,
		"to": 10,
		"total": 34,
		"data": [
			{
				"workflowId": 4,
				"workflowName": "Test Sequence - PROD",
				"isWorkflowCustom": 0,
				"emailOpenRate": "0",
				"emailClickThroughRate": "0",
				"emailReplyRatio": "0",
				"emailBounceRatio": "0",
				"emailUnsubscribeRatio": "0"
			},
			{
				"workflowId": 5,
				"workflowName": "Test Sequence - PROD 2",
				"isWorkflowCustom": 0,
				"emailOpenRate": "0",
				"emailClickThroughRate": "0",
				"emailReplyRatio": "0",
				"emailBounceRatio": "0",
				"emailUnsubscribeRatio": "0"
			},
			{
				"workflowId": 6,
				"workflowName": "Website Design",
				"isWorkflowCustom": 0,
				"emailOpenRate": "0",
				"emailClickThroughRate": "0",
				"emailReplyRatio": "0",
				"emailBounceRatio": "0",
				"emailUnsubscribeRatio": "0"
			},
			{
				"workflowId": 7,
				"workflowName": "Test- EmailSeq Template",
				"isWorkflowCustom": 0,
				"emailOpenRate": "0",
				"emailClickThroughRate": "0",
				"emailReplyRatio": "0",
				"emailBounceRatio": "0",
				"emailUnsubscribeRatio": "0"
			},
			{
				"workflowId": 8,
				"workflowName": "Acquisition for Local SEO",
				"isWorkflowCustom": 0,
				"emailOpenRate": "0",
				"emailClickThroughRate": "0",
				"emailReplyRatio": "0",
				"emailBounceRatio": "0",
				"emailUnsubscribeRatio": "0"
			},
			{
				"workflowId": 9,
				"workflowName": "Acquisition for Social Media",
				"isWorkflowCustom": 0,
				"emailOpenRate": "0",
				"emailClickThroughRate": "0",
				"emailReplyRatio": "0",
				"emailBounceRatio": "0",
				"emailUnsubscribeRatio": "0"
			},
			{
				"workflowId": 10,
				"workflowName": "Acquisition for Social",
				"isWorkflowCustom": 0,
				"emailOpenRate": "0",
				"emailClickThroughRate": "0",
				"emailReplyRatio": "0",
				"emailBounceRatio": "0",
				"emailUnsubscribeRatio": "0"
			},
			{
				"workflowId": 11,
				"workflowName": "Test- EmailSeq Template",
				"isWorkflowCustom": 0,
				"emailOpenRate": "0",
				"emailClickThroughRate": "0",
				"emailReplyRatio": "0",
				"emailBounceRatio": "0",
				"emailUnsubscribeRatio": "0"
			},
			{
				"workflowId": 12,
				"workflowName": "Local SEO Nurturing",
				"isWorkflowCustom": 0,
				"emailOpenRate": "0",
				"emailClickThroughRate": "0",
				"emailReplyRatio": "0",
				"emailBounceRatio": "0",
				"emailUnsubscribeRatio": "0"
			},
			{
				"workflowId": 13,
				"workflowName": "Social Media",
				"isWorkflowCustom": 0,
				"emailOpenRate": "0",
				"emailClickThroughRate": "0",
				"emailReplyRatio": "0",
				"emailBounceRatio": "0",
				"emailUnsubscribeRatio": "0"
			}
		]
	}
}