{
	"statusCode": 200,
	"response": {
		"current_page": 1,
		"from": 1,
		"last_page": 4,
		"next_page_url": "?page=2",
		"path": "",
		"per_page": 10,
		"prev_page_url": null,
		"to": 10,
		"total": 31,
		"data": [
			{
				"accountEmailStatuscode": "email_connection_failed",
				"createdDate": "2020-07-06 02:50:36"
			},
			{
				"accountEmailStatuscode": "email_connection_failed",
				"createdDate": "2021-11-15 02:36:42"
			},
			{
				"accountEmailStatuscode": "email_connection_failed",
				"createdDate": "2023-02-27 02:20:12"
			},
			{
				"accountEmailStatuscode": "email_connection_failed",
				"createdDate": "2024-04-17 04:27:14"
			},
			{
				"accountEmailStatuscode": "email_connection_success",
				"createdDate": "2018-04-18 16:10:25"
			},
			{
				"accountEmailStatuscode": "email_connection_success",
				"createdDate": "2018-04-18 17:06:57"
			},
			{
				"accountEmailStatuscode": "email_connection_success",
				"createdDate": "2018-04-25 13:58:10"
			},
			{
				"accountEmailStatuscode": "email_connection_success",
				"createdDate": "2018-04-25 14:01:05"
			},
			{
				"accountEmailStatuscode": "email_connection_success",
				"createdDate": "2018-04-25 14:19:47"
			},
			{
				"accountEmailStatuscode": "email_connection_success",
				"createdDate": "2018-04-25 15:21:32"
			}
		]
	}
}